{
  "src_folders": ["./tests/e2e"],
  "output_folder" : "./reports",

  "selenium" : {
    "start_process" : true,
    "server_path" : "./selenium-server-standalone-2.53.0.jar",
    "log_path" : "",
    "host" : "127.0.0.1",
    "port" : 4444,
    "cli_args" : {
      "webdriver.chrome.driver" : "",
      "webdriver.ie.driver" : ""
    }
  },

  "test_settings" : {
    "default" : {
      "launch_url" : "http://localhost",
      "selenium_port"  : 4444,
      "selenium_host"  : "localhost",
      "silent": true,
      "screenshots" : {
        "enabled" : false,
        "path" : ""
      },
      "desiredCapabilities": {
        "browserName": "firefox",
        "javascriptEnabled": true
      }
    },

    "chrome" : {
      "launch_url" : "http://localhost",
      "selenium_port"  : 4444,
      "selenium_host"  : "localhost",
      "desiredCapabilities": {
        "browserName": "chrome",
        "javascriptEnabled": true
      }
    }
  }
}
