<?xml version="1.0" encoding="utf-8"?>
<!-- Generator: Adobe Illustrator 16.0.0, SVG Export Plug-In . SVG Version: 6.00 Build 0)  -->
<!DOCTYPE svg PUBLIC "-//W3C//DTD SVG 1.1//EN" "http://www.w3.org/Graphics/SVG/1.1/DTD/svg11.dtd">
<svg version="1.1" id="Layer_1" xmlns="http://www.w3.org/2000/svg" xmlns:xlink="http://www.w3.org/1999/xlink" x="0px" y="0px"
	 width="32px" height="32px" viewBox="0 0 32 32" style="enable-background:new 0 0 32 32;" xml:space="preserve">
<style type="text/css">
<![CDATA[
	.st0{fill:#F1F1F1;}
	.st1{fill-rule:evenodd;clip-rule:evenodd;fill:#F41111;}
]]>
</style>
<g>
	<path class="st1" d="M16,0.5c8.6,0,15.5,6.9,15.5,15.5S24.6,31.5,16,31.5C7.4,31.5,0.5,24.6,0.5,16S7.4,0.5,16,0.5z"/>
	<g>
		<path class="st0" d="M18.7,14.3c0.1,0.4,0.2,0.8,0.2,1.2v1.2h-1.7v-1.2c0-0.3-0.1-0.6-0.3-0.8c-0.2-0.2-0.5-0.3-0.8-0.3h-4.1
			c-0.3,0-0.6,0.1-0.8,0.3c-0.2,0.2-0.3,0.5-0.3,0.8v1.2c0,0.3,0.1,0.6,0.3,0.8c0.2,0.2,0.5,0.3,0.8,0.3h0.6
			c0.1,0.3,0.2,0.7,0.4,0.9c0.2,0.3,0.4,0.5,0.5,0.6l0.2,0.2h-1.7c-0.8,0-1.5-0.3-2.1-0.9C9.3,18.1,9,17.4,9,16.6v-1.2
			c0-0.8,0.3-1.5,0.9-2.1s1.3-0.9,2.1-0.9H16c0.6,0,1.1,0.2,1.6,0.5C18.1,13.4,18.5,13.8,18.7,14.3z M20.1,12.6
			c0.8,0,1.5,0.3,2.1,0.9s0.9,1.3,0.9,2.1v1.2c0,0.8-0.3,1.5-0.9,2.1c-0.6,0.6-1.3,0.9-2.1,0.9H16c-1.2,0-2.1-0.6-2.7-1.7
			c-0.2-0.4-0.3-0.8-0.3-1.2v-1.2h1.7v1.2c0,0.3,0.1,0.6,0.3,0.8c0.2,0.2,0.5,0.3,0.8,0.3h4.1c0.3,0,0.6-0.1,0.8-0.3
			c0.2-0.2,0.3-0.5,0.3-0.8v-1.2c0-0.3-0.1-0.6-0.3-0.8c-0.2-0.2-0.5-0.3-0.8-0.3h-0.6c-0.1-0.3-0.2-0.7-0.4-0.9
			c-0.2-0.3-0.4-0.5-0.5-0.6l-0.2-0.2H20.1z"/>
	</g>
</g>
</svg>
